[
    {
        "pba": "Trading",
        "registrations": 8840
    },
    {
        "pba": "Business Services",
        "registrations": 2285
    },
    {
        "pba": "Real Estate and Renting",
        "registrations": 1052
    },
    {
        "pba": "Construction",
        "registrations": 1021
    },
    {
        "pba": "Manufacturing (Metals & Chemicals, and products thereof)",
        "registrations": 372
    }
]