[
    {
        "2000": 131,
        "2001": 94,
        "2002": 110,
        "2003": 118,
        "2004": 211,
        "2005": 180,
        "2006": 178,
        "2007": 381,
        "2008": 406,
        "2009": 265,
        "2010": 396,
        "2011": 475,
        "2012": 471,
        "2013": 444,
        "2014": 465,
        "2015": 761,
        "2016": 732,
        "2017": 841,
        "2018": 264,
        "pba": "Agriculture and Allied Activities"
    },
    {
        "2000": 34,
        "2001": 11,
        "2002": 18,
        "2003": 33,
        "2004": 54,
        "2005": 79,
        "2006": 72,
        "2007": 85,
        "2008": 256,
        "2009": 126,
        "2010": 150,
        "2011": 165,
        "2012": 104,
        "2013": 106,
        "2014": 65,
        "2015": 59,
        "2016": 36,
        "2017": 54,
        "2018": 19,
        "pba": "Mining & Quarrying"
    },
    {
        "2000": 588,
        "2001": 403,
        "2002": 445,
        "2003": 699,
        "2004": 942,
        "2005": 1089,
        "2006": 860,
        "2007": 809,
        "2008": 787,
        "2009": 646,
        "2010": 938,
        "2011": 888,
        "2012": 842,
        "2013": 768,
        "2014": 464,
        "2015": 467,
        "2016": 508,
        "2017": 542,
        "2018": 212,
        "pba": "Manufacturing (Metals & Chemicals, and products thereof)"
    },
    {
        "2000": 79,
        "2001": 5,
        "2002": 9,
        "2003": 8,
        "2004": 6,
        "2005": 40,
        "2006": 185,
        "pba": "OTHERS"
    },
    {
        "2000": 1108,
        "2001": 827,
        "2002": 1101,
        "2003": 1441,
        "2004": 1509,
        "2005": 1642,
        "2006": 1321,
        "2007": 1646,
        "2008": 1933,
        "2009": 1602,
        "2010": 2090,
        "2011": 1749,
        "2012": 1694,
        "2013": 1391,
        "2014": 935,
        "2015": 947,
        "2016": 1181,
        "2017": 1318,
        "2018": 438,
        "pba": "Trading"
    },
    {
        "2000": 351,
        "2001": 274,
        "2002": 306,
        "2003": 346,
        "2004": 405,
        "2005": 498,
        "2006": 382,
        "2007": 457,
        "2008": 603,
        "2009": 412,
        "2010": 494,
        "2011": 518,
        "2012": 541,
        "2013": 509,
        "2014": 301,
        "2015": 371,
        "2016": 470,
        "2017": 475,
        "2018": 175,
        "pba": "Transport, storage and Communications"
    },
    {
        "2000": 425,
        "2001": 371,
        "2002": 386,
        "2003": 439,
        "2004": 578,
        "2005": 646,
        "2006": 647,
        "2007": 873,
        "2008": 1229,
        "2009": 1025,
        "2010": 1389,
        "2011": 1602,
        "2012": 1496,
        "2013": 1480,
        "2014": 882,
        "2015": 765,
        "2016": 798,
        "2017": 1466,
        "2018": 515,
        "pba": "Community, personal & Social Services"
    },
    {
        "2000": 360,
        "2001": 207,
        "2002": 87,
        "2003": 10,
        "2004": 2,
        "2005": 73,
        "2006": 116,
        "pba": "Others"
    },
    {
        "2000": 431,
        "2001": 378,
        "2002": 391,
        "2003": 513,
        "2004": 635,
        "2005": 775,
        "2006": 687,
        "2007": 636,
        "2008": 554,
        "2009": 648,
        "2010": 837,
        "2011": 899,
        "2012": 786,
        "2013": 690,
        "2014": 509,
        "2015": 500,
        "2016": 554,
        "2017": 556,
        "2018": 166,
        "pba": "Manufacturing (Machinery & Equipments)"
    },
    {
        "2000": 566,
        "2001": 248,
        "2002": 161,
        "2003": 236,
        "2004": 348,
        "2005": 505,
        "2006": 328,
        "2007": 533,
        "2008": 577,
        "2009": 401,
        "2010": 589,
        "2011": 540,
        "2012": 372,
        "2013": 333,
        "2014": 211,
        "2015": 208,
        "2016": 258,
        "2017": 352,
        "2018": 184,
        "pba": "Finance"
    },
    {
        "2000": 22,
        "2001": 27,
        "2002": 19,
        "2003": 3,
        "2004": 8,
        "2005": 5,
        "2006": 13,
        "2007": 19,
        "2008": 33,
        "2009": 32,
        "2010": 26,
        "2011": 20,
        "2012": 7,
        "2013": 11,
        "2014": 6,
        "2015": 16,
        "2016": 17,
        "2017": 18,
        "2018": 2,
        "pba": "Insurance"
    },
    {
        "2000": 3639,
        "2001": 1316,
        "2002": 973,
        "2003": 1249,
        "2004": 1541,
        "2005": 1778,
        "2006": 1759,
        "2007": 2745,
        "2008": 3376,
        "2009": 2896,
        "2010": 4521,
        "2011": 5851,
        "2012": 6666,
        "2013": 6605,
        "2014": 6161,
        "2015": 8426,
        "2016": 10384,
        "2017": 11122,
        "2018": 4035,
        "pba": "Business Services"
    },
    {
        "2000": 382,
        "2001": 392,
        "2002": 398,
        "2003": 487,
        "2004": 720,
        "2005": 949,
        "2006": 1299,
        "2007": 2220,
        "2008": 2407,
        "2009": 1138,
        "2010": 2293,
        "2011": 2061,
        "2012": 1869,
        "2013": 1743,
        "2014": 979,
        "2015": 810,
        "2016": 809,
        "2017": 792,
        "2018": 232,
        "pba": "Construction"
    },
    {
        "2000": 241,
        "2001": 85,
        "2002": 120,
        "2003": 295,
        "2004": 353,
        "2005": 659,
        "2006": 654,
        "2007": 915,
        "2008": 858,
        "2009": 604,
        "2010": 1169,
        "2011": 1120,
        "2012": 971,
        "2013": 822,
        "2014": 496,
        "2015": 485,
        "2016": 334,
        "2017": 381,
        "2018": 111,
        "pba": "Real Estate and Renting"
    },
    {
        "2000": 190,
        "2001": 124,
        "2002": 151,
        "2003": 215,
        "2004": 202,
        "2005": 238,
        "2006": 188,
        "2007": 211,
        "2008": 270,
        "2009": 277,
        "2010": 370,
        "2011": 408,
        "2012": 469,
        "2013": 416,
        "2014": 319,
        "2015": 371,
        "2016": 420,
        "2017": 476,
        "2018": 166,
        "pba": "Manufacturing (Food stuffs)"
    },
    {
        "2000": 154,
        "2001": 115,
        "2002": 157,
        "2003": 266,
        "2004": 309,
        "2005": 394,
        "2006": 227,
        "2007": 294,
        "2008": 200,
        "2009": 188,
        "2010": 304,
        "2011": 344,
        "2012": 380,
        "2013": 345,
        "2014": 162,
        "2015": 201,
        "2016": 193,
        "2017": 255,
        "2018": 90,
        "pba": "Manufacturing (Textiles)"
    },
    {
        "2000": 92,
        "2001": 97,
        "2002": 53,
        "2003": 92,
        "2004": 118,
        "2005": 113,
        "2006": 123,
        "2007": 137,
        "2008": 182,
        "2009": 149,
        "2010": 218,
        "2011": 221,
        "2012": 188,
        "2013": 199,
        "2014": 125,
        "2015": 135,
        "2016": 134,
        "2017": 111,
        "2018": 35,
        "pba": "Manufacturing (Paper & Paper products, Publishing, printing and reproduction of recorded media)"
    },
    {
        "2000": 95,
        "2001": 31,
        "2002": 76,
        "2003": 96,
        "2004": 147,
        "2005": 174,
        "2006": 74,
        "2007": 194,
        "2008": 171,
        "2009": 152,
        "2010": 193,
        "2011": 230,
        "2012": 232,
        "2013": 195,
        "2014": 151,
        "2015": 116,
        "2016": 147,
        "2017": 167,
        "2018": 60,
        "pba": "Manufacturing (Others)"
    },
    {
        "2000": 41,
        "2001": 27,
        "2002": 26,
        "2003": 44,
        "2004": 43,
        "2005": 81,
        "2006": 82,
        "2007": 144,
        "2008": 249,
        "2009": 168,
        "2010": 406,
        "2011": 229,
        "2012": 211,
        "2013": 189,
        "2014": 103,
        "2015": 154,
        "2016": 167,
        "2017": 139,
        "2018": 56,
        "pba": "Electricity, Gas & Water companies"
    },
    {
        "2000": 5,
        "2001": 9,
        "2002": 4,
        "2003": 7,
        "2004": 11,
        "2005": 11,
        "2006": 7,
        "2007": 3,
        "2008": 4,
        "2009": 13,
        "2010": 18,
        "2011": 15,
        "2012": 23,
        "2013": 12,
        "2014": 17,
        "2015": 14,
        "2016": 14,
        "2017": 22,
        "2018": 12,
        "pba": "Manufacturing (Leather & products thereof)"
    },
    {
        "2000": 3,
        "2001": 12,
        "2002": 4,
        "2003": 11,
        "2004": 7,
        "2005": 13,
        "2006": 25,
        "2007": 6,
        "2008": 16,
        "2009": 21,
        "2010": 12,
        "2011": 17,
        "2012": 15,
        "2013": 15,
        "2014": 5,
        "2015": 7,
        "2016": 12,
        "2017": 15,
        "2018": 6,
        "pba": "Manufacturing (Wood Products)"
    }
]